{
    "appName": {
        "message": "Dune Metal",
        "description": "The title of the application, displayed in the web store."
    },
    "appDesc": {
        "message": "Dune Wallet in your Browser",
        "description": "The description of the application, displayed in the web store."
    },


    "headerPopupApprove": {
        "message": "Connection Request",
        "description": "Title in the popup to approve connection."
    }
}
